{
    "title": "Photos",
    "logo_url": "images/logo.png",
    "breadcrumb": [
        {
            "title": "Home",
            "link": "http://home"
        },
        {
            "title": "Some Page",
            "link": "http://page"
        },
        {
            "title": "Sub Page",
            "link": "http://subpage"
        }
    ],
    "photos": [
        {
            "fid": "photo-1",
            "timestamp_created": 1422403200,
            "title": "Photo 1",
            "description": "<p>This is description of Photo 1.</p>\n<p>Lorem ipsum <strong>dolor sit amet</strong>, consectetur adipisicing elit, sed do eiusmod tempor incididunt ut labore et dolore magna aliqua. Ut enim ad minim veniam, quis nostrud exercitation ullamco laboris nisi ut aliquip ex ea commodo consequat. </p>\n\n<p>Lorem ipsum <strong>dolor sit amet</strong>, consectetur adipisicing elit, sed do eiusmod tempor incididunt ut labore et dolore magna aliqua. </p>\n",
            "images": [
                "/images/caslon-specimen1.jpg"
            ],
            "link": "http://photo1"
        },
        {
            "fid": "photo-2",
            "timestamp_created": 1421625600,
            "title": "Photo 2",
            "description": "<p>This is description of Photo 2.</p>\n<p>Lorem ipsum <strong>dolor sit amet</strong>, consectetur adipisicing elit, sed do eiusmod tempor incididunt ut labore et dolore magna aliqua. Ut enim ad minim veniam, quis nostrud exercitation ullamco laboris nisi ut aliquip ex ea commodo consequat. </p>\n\n<p>Lorem ipsum <strong>dolor sit amet</strong>, consectetur adipisicing elit, sed do eiusmod tempor incididunt ut labore et dolore magna aliqua. </p>\n",
            "images": [
                "/images/dbs.jpg"
            ],
            "link": "http://photo2"
        },
        {
            "fid": "photo-3",
            "timestamp_created": 1420848000,
            "title": "Photo 3",
            "description": "<p>This is description of Photo 3.</p>\n<p>Lorem ipsum <strong>dolor sit amet</strong>, consectetur adipisicing elit, sed do eiusmod tempor incididunt ut labore et dolore magna aliqua. Ut enim ad minim veniam, quis nostrud exercitation ullamco laboris nisi ut aliquip ex ea commodo consequat. </p>\n\n<p>Lorem ipsum <strong>dolor sit amet</strong>, consectetur adipisicing elit, sed do eiusmod tempor incididunt ut labore et dolore magna aliqua. </p>\n",
            "images": [
                "/images/products/large/image1.jpg"
            ],
            "link": "http://photo3"
        },
        {
            "fid": "photo-4",
            "timestamp_created": 1420070400,
            "title": "Photo 4",
            "description": "<p>This is description of Photo 4.</p>\n<p>Lorem ipsum <strong>dolor sit amet</strong>, consectetur adipisicing elit, sed do eiusmod tempor incididunt ut labore et dolore magna aliqua. Ut enim ad minim veniam, quis nostrud exercitation ullamco laboris nisi ut aliquip ex ea commodo consequat. </p>\n\n<p>Lorem ipsum <strong>dolor sit amet</strong>, consectetur adipisicing elit, sed do eiusmod tempor incididunt ut labore et dolore magna aliqua. </p>\n",
            "images": [
                "/images/products/large/image2.jpg"
            ],
            "link": "http://photo4"
        },
        {
            "fid": "photo-5",
            "timestamp_created": 1419292800,
            "title": "Photo 5",
            "description": "<p>This is description of Photo 5.</p>\n<p>Lorem ipsum <strong>dolor sit amet</strong>, consectetur adipisicing elit, sed do eiusmod tempor incididunt ut labore et dolore magna aliqua. Ut enim ad minim veniam, quis nostrud exercitation ullamco laboris nisi ut aliquip ex ea commodo consequat. </p>\n\n<p>Lorem ipsum <strong>dolor sit amet</strong>, consectetur adipisicing elit, sed do eiusmod tempor incididunt ut labore et dolore magna aliqua. </p>\n",
            "images": [
                "/images/products/large/image3.jpg"
            ],
            "link": "http://photo5"
        },
        {
            "fid": "photo-6",
            "timestamp_created": 1418515200,
            "title": "Photo 6",
            "description": "<p>This is description of Photo 6.</p>\n<p>Lorem ipsum <strong>dolor sit amet</strong>, consectetur adipisicing elit, sed do eiusmod tempor incididunt ut labore et dolore magna aliqua. Ut enim ad minim veniam, quis nostrud exercitation ullamco laboris nisi ut aliquip ex ea commodo consequat. </p>\n\n<p>Lorem ipsum <strong>dolor sit amet</strong>, consectetur adipisicing elit, sed do eiusmod tempor incididunt ut labore et dolore magna aliqua. </p>\n",
            "images": [
                "/images/products/large/image4.jpg"
            ],
            "link": "http://photo6"
        },
        {
            "fid": "photo-7",
            "timestamp_created": 1417737600,
            "title": "Photo 7",
            "description": "<p>This is description of Photo 7.</p>\n<p>Lorem ipsum <strong>dolor sit amet</strong>, consectetur adipisicing elit, sed do eiusmod tempor incididunt ut labore et dolore magna aliqua. Ut enim ad minim veniam, quis nostrud exercitation ullamco laboris nisi ut aliquip ex ea commodo consequat. </p>\n\n<p>Lorem ipsum <strong>dolor sit amet</strong>, consectetur adipisicing elit, sed do eiusmod tempor incididunt ut labore et dolore magna aliqua. </p>\n",
            "images": [
                "/images/products/large/image1.jpg"
            ],
            "link": "http://photo7"
        },
        {
            "fid": "photo-8",
            "timestamp_created": 1416960000,
            "title": "Photo 8",
            "description": "<p>This is description of Photo 8.</p>\n<p>Lorem ipsum <strong>dolor sit amet</strong>, consectetur adipisicing elit, sed do eiusmod tempor incididunt ut labore et dolore magna aliqua. Ut enim ad minim veniam, quis nostrud exercitation ullamco laboris nisi ut aliquip ex ea commodo consequat. </p>\n\n<p>Lorem ipsum <strong>dolor sit amet</strong>, consectetur adipisicing elit, sed do eiusmod tempor incididunt ut labore et dolore magna aliqua. </p>\n",
            "images": [
                "/images/products/large/image2.jpg"
            ],
            "link": "http://photo8"
        },
        {
            "fid": "photo-9",
            "timestamp_created": 1416182400,
            "title": "Photo 9",
            "description": "<p>This is description of Photo 9.</p>\n<p>Lorem ipsum <strong>dolor sit amet</strong>, consectetur adipisicing elit, sed do eiusmod tempor incididunt ut labore et dolore magna aliqua. Ut enim ad minim veniam, quis nostrud exercitation ullamco laboris nisi ut aliquip ex ea commodo consequat. </p>\n\n<p>Lorem ipsum <strong>dolor sit amet</strong>, consectetur adipisicing elit, sed do eiusmod tempor incididunt ut labore et dolore magna aliqua. </p>\n",
            "images": [
                "/images/caslon-specimen1.jpg"
            ],
            "link": "http://photo9"
        },
        {
            "fid": "photo-10",
            "timestamp_created": 1415404800,
            "title": "Photo 10",
            "description": "<p>This is description of Photo 10.</p>\n<p>Lorem ipsum <strong>dolor sit amet</strong>, consectetur adipisicing elit, sed do eiusmod tempor incididunt ut labore et dolore magna aliqua. Ut enim ad minim veniam, quis nostrud exercitation ullamco laboris nisi ut aliquip ex ea commodo consequat. </p>\n\n<p>Lorem ipsum <strong>dolor sit amet</strong>, consectetur adipisicing elit, sed do eiusmod tempor incididunt ut labore et dolore magna aliqua. </p>\n",
            "images": [
                "/images/caslon-specimen1.jpg"
            ],
            "link": "http://photo10"
        },
        {
            "fid": "photo-11",
            "timestamp_created": 1414627200,
            "title": "Photo 11",
            "description": "<p>This is description of Photo 11.</p>\n<p>Lorem ipsum <strong>dolor sit amet</strong>, consectetur adipisicing elit, sed do eiusmod tempor incididunt ut labore et dolore magna aliqua. Ut enim ad minim veniam, quis nostrud exercitation ullamco laboris nisi ut aliquip ex ea commodo consequat. </p>\n\n<p>Lorem ipsum <strong>dolor sit amet</strong>, consectetur adipisicing elit, sed do eiusmod tempor incididunt ut labore et dolore magna aliqua. </p>\n",
            "images": [
                "/images/products/large/image3.jpg"
            ],
            "link": "http://photo11"
        },
		{
            "fid": "photo-11",
            "timestamp_created": 1414627200,
            "title": "Photo 11",
            "description": "<p>This is description of Photo 11.</p>\n<p>Lorem ipsum <strong>dolor sit amet</strong>, consectetur adipisicing elit, sed do eiusmod tempor incididunt ut labore et dolore magna aliqua. Ut enim ad minim veniam, quis nostrud exercitation ullamco laboris nisi ut aliquip ex ea commodo consequat. </p>\n\n<p>Lorem ipsum <strong>dolor sit amet</strong>, consectetur adipisicing elit, sed do eiusmod tempor incididunt ut labore et dolore magna aliqua. </p>\n",
            "images": [
                "/images/products/large/image3.jpg"
            ],
            "link": "http://photo11"
        },
		{
            "fid": "photo-11",
            "timestamp_created": 1414627200,
            "title": "Photo 11",
            "description": "<p>This is description of Photo 11.</p>\n<p>Lorem ipsum <strong>dolor sit amet</strong>, consectetur adipisicing elit, sed do eiusmod tempor incididunt ut labore et dolore magna aliqua. Ut enim ad minim veniam, quis nostrud exercitation ullamco laboris nisi ut aliquip ex ea commodo consequat. </p>\n\n<p>Lorem ipsum <strong>dolor sit amet</strong>, consectetur adipisicing elit, sed do eiusmod tempor incididunt ut labore et dolore magna aliqua. </p>\n",
            "images": [
                "/images/products/large/image3.jpg"
            ],
            "link": "http://photo11"
        },
		{
            "fid": "photo-11",
            "timestamp_created": 1414627200,
            "title": "Photo 11",
            "description": "<p>This is description of Photo 11.</p>\n<p>Lorem ipsum <strong>dolor sit amet</strong>, consectetur adipisicing elit, sed do eiusmod tempor incididunt ut labore et dolore magna aliqua. Ut enim ad minim veniam, quis nostrud exercitation ullamco laboris nisi ut aliquip ex ea commodo consequat. </p>\n\n<p>Lorem ipsum <strong>dolor sit amet</strong>, consectetur adipisicing elit, sed do eiusmod tempor incididunt ut labore et dolore magna aliqua. </p>\n",
            "images": [
                "/images/products/large/image2.jpg"
            ],
            "link": "http://photo11"
        },
		{
            "fid": "photo-11",
            "timestamp_created": 1414627200,
            "title": "Photo 11",
            "description": "<p>This is description of Photo 11.</p>\n<p>Lorem ipsum <strong>dolor sit amet</strong>, consectetur adipisicing elit, sed do eiusmod tempor incididunt ut labore et dolore magna aliqua. Ut enim ad minim veniam, quis nostrud exercitation ullamco laboris nisi ut aliquip ex ea commodo consequat. </p>\n\n<p>Lorem ipsum <strong>dolor sit amet</strong>, consectetur adipisicing elit, sed do eiusmod tempor incididunt ut labore et dolore magna aliqua. </p>\n",
            "images": [
                "/images/products/large/image2.jpg"
            ],
            "link": "http://photo11"
        },
		{
            "fid": "photo-11",
            "timestamp_created": 1414627200,
            "title": "Photo 11",
            "description": "<p>This is description of Photo 11.</p>\n<p>Lorem ipsum <strong>dolor sit amet</strong>, consectetur adipisicing elit, sed do eiusmod tempor incididunt ut labore et dolore magna aliqua. Ut enim ad minim veniam, quis nostrud exercitation ullamco laboris nisi ut aliquip ex ea commodo consequat. </p>\n\n<p>Lorem ipsum <strong>dolor sit amet</strong>, consectetur adipisicing elit, sed do eiusmod tempor incididunt ut labore et dolore magna aliqua. </p>\n",
            "images": [
                "/images/products/large/image2.jpg"
            ],
            "link": "http://photo11"
        },
		{
            "fid": "photo-11",
            "timestamp_created": 1414627200,
            "title": "Photo 11",
            "description": "<p>This is description of Photo 11.</p>\n<p>Lorem ipsum <strong>dolor sit amet</strong>, consectetur adipisicing elit, sed do eiusmod tempor incididunt ut labore et dolore magna aliqua. Ut enim ad minim veniam, quis nostrud exercitation ullamco laboris nisi ut aliquip ex ea commodo consequat. </p>\n\n<p>Lorem ipsum <strong>dolor sit amet</strong>, consectetur adipisicing elit, sed do eiusmod tempor incididunt ut labore et dolore magna aliqua. </p>\n",
            "images": [
                "/images/products/large/image2.jpg"
            ],
            "link": "http://photo11"
        },
		{
            "fid": "photo-11",
            "timestamp_created": 1414627200,
            "title": "Photo 11",
            "description": "<p>This is description of Photo 11.</p>\n<p>Lorem ipsum <strong>dolor sit amet</strong>, consectetur adipisicing elit, sed do eiusmod tempor incididunt ut labore et dolore magna aliqua. Ut enim ad minim veniam, quis nostrud exercitation ullamco laboris nisi ut aliquip ex ea commodo consequat. </p>\n\n<p>Lorem ipsum <strong>dolor sit amet</strong>, consectetur adipisicing elit, sed do eiusmod tempor incididunt ut labore et dolore magna aliqua. </p>\n",
            "images": [
                "/images/products/large/image2.jpg"
            ],
            "link": "http://photo11"
        }
    ],
    "paging": {
        "total_items": 28,
        "total_pages": 4,
        "current_page": 4,
        "items_per_page": 7,
        "link": "http://paging",
        "link_all": "http://all",
        "params": {
            "foo": "bar",
            "page": "qux",
            "items_per_page": "john",
            "spam": "egg"
        }
    }
}