{
    "title": "Photo Categories",
    "breadcrumb": [
        {
            "title": "Home",
            "link": "http://home"
        },
        {
            "title": "Some Page",
            "link": "http://page"
        },
        {
            "title": "Sub Page",
            "link": "http://subpage"
        }
    ],
    "paging": {
        "total_items": 28,
        "total_pages": 4,
        "current_page": 4,
        "items_per_page": 7,
        "link": "http://paging",
        "link_all": "http://all",
        "params": {
            "foo": "bar",
            "page": "qux",
            "items_per_page": "john",
            "spam": "egg"
        }
    }
}